Calidad del aire Gijón - actividad 3
…
Comprobamos en la tabla anterior que existen estaciones que tienen en algunos atributos un 100% de NAs, por lo que se entiende que en lugar de faltar el dato en sí, la estación simplemente no informa de ese tipo de valor, al faltar el dato en su totalidad. Este hecho ocurre en todas las estaciones por lo que visualizaremos el resultado para ver más claramente qué información nos proporciona cada estación.

# Pivotamos el dataframe anterior para que nuestros datos encajen en el gráfico que queremos crear.
pivoted <- stations_NA_info %>% pivot_longer(!EstacionName, names_to = "medida", values_to = "porcentajeNAs")

# Mostramos el dataframe pivotado.
pivoted

## # A tibble: 126 x 3
##    EstacionName               medida     porcentajeNAs
##    <fct>                      <chr>              <dbl>
##  1 Estación Avenida Argentina EstacionID             0
##  2 Estación Avenida Argentina Lat                    0
##  3 Estación Avenida Argentina Lon                    0
##  4 Estación Avenida Argentina Fecha_UTC              0
##  5 Estación Avenida Argentina SO2                    0
##  6 Estación Avenida Argentina NO                     0
##  7 Estación Avenida Argentina NO2                    0
##  8 Estación Avenida Argentina CO                     0
##  9 Estación Avenida Argentina PM10                   0
## 10 Estación Avenida Argentina O3                     0
## # ... with 116 more rows
…
# Pivotamos el dataframe para que nuestros datos encajen en el gráfico que queremos crear.
pivoted_means <- stations_info_mean %>% pivot_longer(!EstacionName, names_to = "Medidas", values_to = "Medias")

# Mostramos el dataframe pivotado.
pivoted_means

## # A tibble: 114 x 3
##    EstacionName               Medidas     Medias
##    <fct>                      <chr>        <dbl>
##  1 Estación Avenida Argentina Lat_media   43.5  
##  2 Estación Avenida Argentina Lon_media   -5.70 
##  3 Estación Avenida Argentina SO2_media    4.57 
##  4 Estación Avenida Argentina NO_media     2.97 
##  5 Estación Avenida Argentina NO2_media   15.1  
##  6 Estación Avenida Argentina CO_media     0.254
##  7 Estación Avenida Argentina PM10_media  24.0  
##  8 Estación Avenida Argentina O3_media    51.0  
##  9 Estación Avenida Argentina dd_media   NaN    
## 10 Estación Avenida Argentina vv_media   NaN    
## # ... with 104 more rows
…
